{
    "fileTypes": [
        "bamol"
    ],
    "name": "Bamol",
    "patterns": [
        {
            "include": "#main"
        }
    ],
    "scopeName": "source.Bamol",
    "uuid": "",
    "repository": {
        "main": {
            "patterns": [
                {
                    "include": "#grammar"
                }
            ]
        },
        "Action": {
            "patterns": [
                {
                    "match": "({)((?:\\w+::)?\\^?\\w+\\.?\\w*)(\\s*)(\\+?=?)(\\s*)((?:current)?)(})",
                    "captures": {
                        "1": {
                            "name": "punctuation.Bamol"
                        },
                        "2": {
                            "name": "entity.name.Bamol"
                        },
                        "3": {
                            "name": "whitespace.Bamol"
                        },
                        "4": {
                            "name": "keyword.operator.Bamol"
                        },
                        "5": {
                            "name": "whitespace.Bamol"
                        },
                        "6": {
                            "name": "keyword.control.Bamol"
                        },
                        "7": {
                            "name": "punctuation.Bamol"
                        }
                    }
                }
            ]
        },
        "Annotation": {
            "patterns": [
                {
                    "match": "(@\\w+)",
                    "name": "support.type.Bamol"
                }
            ]
        },
        "FeatureAssignment": {
            "patterns": [
                {
                    "match": "(\\^?\\w+)(\\s*)((?:[\\+\\?]=)|(?:=))",
                    "captures": {
                        "1": {
                            "name": "entity.name.Bamol"
                        },
                        "2": {
                            "name": "whitespace.Bamol"
                        },
                        "3": {
                            "name": "keyword.operator.Bamol"
                        }
                    }
                }
            ]
        },
        "Keywords": {
            "patterns": [
                {
                    "match": "(\\bpackage\\b)|(\\bagent\\b)|(\\bresource\\b)|(\\bcommitment\\b)|(\\bcommits\\b)|(\\bto\\b)|(\\bexchange\\b)|(\\bwith\\b)|(\\bon\\b)|(\\bop\\b)|(\\bscenario\\b)|(\\bgiven\\b)|(\\bwhen\\b)|(\\bthen\\b)",
                    "name": "keyword.control.Bamol"
                }
            ]
        },
        "Operators": {
            "patterns": [
                {
                    "match": "(\\*|&|\\?|\\*|\\+|\\||&|!|(=>)|(\\.\\.)|(\\->)|\\[|\\])",
                    "name": "keyword.operator.Bamol"
                }
            ]
        },
        "Punctuation": {
            "patterns": [
                {
                    "match": "(,|\\,|:|;|<|>|\\(|\\))",
                    "name": "punctuation.Bamol"
                }
            ]
        },
        "STRING": {
            "patterns": [
                {
                    "begin": "(\\\")",
                    "beginCaptures": {
                        "1": {
                            "name": "string.quoted.double.Bamol"
                        }
                    },
                    "contentName": "string.quoted.double.Bamol",
                    "end": "(\\\")",
                    "endCaptures": {
                        "1": {
                            "name": "string.quoted.double.Bamol"
                        }
                    }
                },
                {
                    "begin": "(\\')",
                    "beginCaptures": {
                        "1": {
                            "name": "string.quoted.single.Bamol"
                        }
                    },
                    "contentName": "string.quoted.single.Bamol",
                    "end": "(\\')",
                    "endCaptures": {
                        "1": {
                            "name": "string.quoted.single.Bamol"
                        }
                    }
                }
            ]
        },
        "STRING__1": {
            "patterns": []
        },
        "STRING__2": {
            "patterns": []
        },
        "escapedName": {
            "patterns": [
                {
                    "match": "(\\^\\w+)",
                    "name": "entity.name.Bamol"
                }
            ]
        },
        "fullQualifiedName": {
            "patterns": [
                {
                    "match": "(\\^?(?:\\w+::)?\\b\\w+(\\.|\\$\\w+)*\\b)",
                    "name": "entity.name.Bamol"
                }
            ]
        },
        "grammar": {
            "patterns": [
                {
                    "include": "#multi_line_comment"
                },
                {
                    "include": "#single_line_comment"
                },
                {
                    "include": "#Keywords"
                },
                {
                    "include": "#Operators"
                },
                {
                    "include": "#Punctuation"
                },
                {
                    "include": "#Action"
                },
                {
                    "include": "#FeatureAssignment"
                },
                {
                    "include": "#fullQualifiedName"
                },
                {
                    "include": "#escapedName"
                },
                {
                    "include": "#Annotation"
                },
                {
                    "include": "#STRING"
                },
                {
                    "match": "([^\\s])",
                    "name": "invalid.Bamol"
                }
            ]
        },
        "multi_line_comment": {
            "patterns": [
                {
                    "begin": "(\/\\*)",
                    "beginCaptures": {
                        "1": {
                            "name": "comment.block.Bamol"
                        }
                    },
                    "contentName": "comment.block.Bamol",
                    "end": "(\\*\/)",
                    "endCaptures": {
                        "1": {
                            "name": "comment.block.Bamol"
                        }
                    }
                }
            ]
        },
        "multi_line_comment__1": {
            "patterns": []
        },
        "single_line_comment": {
            "patterns": [
                {
                    "match": "(\/\/.*)",
                    "name": "comment.line.double-slash.Bamol"
                }
            ]
        }
    }
}